{
    "name": "synthetic_data_hdh",
    "fields": [
        {
            "name": "admission_type",
            "type": "string",
            "format": "default",
            "nomenclature": "admission"
        },
        {
            "name": "los_icu",
            "type": "float",
            "format": "default",
            "constraints": {
                "minimum": 0,
                "maximum": 30
            }
        },
        {
            "name": "cmo",
            "type": "integer",
            "constraints": {
                "minimum": 0,
                "maximum": 1
            },
            "format": "default"
        },
        {
            "name": "readmission_30",
            "type": "integer",
            "constraints": {
                "minimum": 0,
                "maximum": 1
            },
            "format": "default"
        },
        {
            "name": "fullcode",
            "type": "integer",
            "constraints": {
                "minimum": 0,
                "maximum": 1
            },
            "format": "default"
        },
        {
            "name": "timecmo_chart",
            "type": "datetime",
            "format": "%Y-%m-%d %H:%M:%S"
        },
        {
            "name": "cmo_last",
            "type": "integer",
            "constraints": {
                "minimum": 0,
                "maximum": 1
            },
            "format": "default"
        },
        {
            "name": "dnr_first",
            "type": "integer",
            "constraints": {
                "minimum": 0,
                "maximum": 1
            },
            "format": "default"
        },
        {
            "name": "dnr_first_charttime",
            "type": "datetime",
            "format": "%Y-%m-%d %H:%M:%S"
        },
        {
            "name": "deathtime",
            "type": "datetime",
            "format": "%Y-%m-%d %H:%M:%S"
        },
        {
            "name": "subject_id",
            "type": "integer",
            "format": "default",
            "length": 5
        },
        {
            "name": "first_careunit",
            "type": "string",
            "format": "default",
            "nomenclature": "careunit"
        },
        {
            "name": "gender",
            "type": "string",
            "format": "default",
            "nomenclature": "gender"
        },
        {
            "name": "intime",
            "type": "datetime",
            "format": "%Y-%m-%d %H:%M:%S"
        },
        {
            "name": "mort_icu",
            "type": "integer",
            "constraints": {
                "minimum": 0,
                "maximum": 1
            },
            "format": "default"
        },
        {
            "name": "age",
            "type": "float",
            "format": "default",
            "constraints": {
                "minimum": 21.0,
                "maximum": 95.0
            }
        },
        {
            "name": "hospital_expire_flag",
            "type": "integer",
            "constraints": {
                "minimum": 0,
                "maximum": 1
            },
            "format": "default"
        },
        {
            "name": "dischtime",
            "type": "datetime",
            "format": "%Y-%m-%d %H:%M:%S"
        },
        {
            "name": "dnr",
            "type": "integer",
            "constraints": {
                "minimum": 0,
                "maximum": 1
            },
            "format": "default"
        },
        {
            "name": "max_hours",
            "type": "integer",
            "format": "default",
            "constraints": {
                "minimum": 1,
                "maximum": 1000
            }
        },
        {
            "name": "cmo_first",
            "type": "integer",
            "constraints": {
                "minimum": 0,
                "maximum": 1
            },
            "format": "default"
        },
        {
            "name": "discharge_location",
            "type": "string",
            "format": "default",
            "nomenclature": "locations"
        },
        {
            "name": "diagnosis_at_admission",
            "type": "string",
            "format": "default",
            "nomenclature": "cim10:lib"
        },
        {
            "name": "admittime",
            "type": "datetime",
            "format": "%Y-%m-%d %H:%M:%S"
        },
        {
            "name": "fullcode_first",
            "type": "integer",
            "constraints": {
                "minimum": 0,
                "maximum": 1
            },
            "format": "default"
        },
        {
            "name": "insurance",
            "type": "string",
            "format": "default",
            "nomenclature": "insurances"
        },
        {
            "name": "mort_hosp",
            "type": "integer",
            "constraints": {
                "minimum": 0,
                "maximum": 1
            },
            "format": "default"
        },
        {
            "name": "hospstay_seq",
            "type": "integer",
            "format": "default",
            "constraints": {
                "minimum": 1,
                "maximum": 1
            }
        },
        {
            "name": "outtime",
            "type": "datetime",
            "format": "%Y-%m-%d %H:%M:%S"
        },
        {
            "name": "hematocrit_mask_1",
            "type": "integer",
            "format": "",
            "nomenclature": "-",
            "constraints": {
                "minimum": 0.0,
                "maximum": 1.0
            }
        },
        {
            "name": "hematocrit_mask_2",
            "type": "integer",
            "format": "",
            "nomenclature": "-",
            "constraints": {
                "minimum": 0.0,
                "maximum": 1.0
            }
        },
        {
            "name": "hematocrit_mask_3",
            "type": "integer",
            "format": "",
            "nomenclature": "-",
            "constraints": {
                "minimum": 0.0,
                "maximum": 1.0
            }
        },
        {
            "name": "hematocrit_mask_4",
            "type": "integer",
            "format": "",
            "nomenclature": "-",
            "constraints": {
                "minimum": 0.0,
                "maximum": 1.0
            }
        },
        {
            "name": "hematocrit_mean_1",
            "type": "float",
            "format": "",
            "nomenclature": "-",
            "constraints": {
                "minimum": 21.799999618530272,
                "maximum": 43.1
            }
        },
        {
            "name": "hematocrit_mean_2",
            "type": "float",
            "format": "",
            "nomenclature": "-",
            "constraints": {
                "minimum": 20.649999809265136,
                "maximum": 42.04999961853027
            }
        },
        {
            "name": "hematocrit_mean_3",
            "type": "float",
            "format": "",
            "nomenclature": "-",
            "constraints": {
                "minimum": 20.649999809265136,
                "maximum": 41.8
            }
        },
        {
            "name": "hematocrit_mean_4",
            "type": "float",
            "format": "",
            "nomenclature": "-",
            "constraints": {
                "minimum": 20.649999809265136,
                "maximum": 41.8
            }
        },
        {
            "name": "hematocrit_time_since_measured_1",
            "type": "integer",
            "format": "",
            "nomenclature": "-",
            "constraints": {
                "minimum": 0.0,
                "maximum": 4.0
            }
        },
        {
            "name": "hematocrit_time_since_measured_2",
            "type": "integer",
            "format": "",
            "nomenclature": "-",
            "constraints": {
                "minimum": 0.0,
                "maximum": 5.0
            }
        },
        {
            "name": "hematocrit_time_since_measured_3",
            "type": "integer",
            "format": "",
            "nomenclature": "-",
            "constraints": {
                "minimum": 0.0,
                "maximum": 2.0
            }
        },
        {
            "name": "hematocrit_time_since_measured_4",
            "type": "integer",
            "format": "",
            "nomenclature": "-",
            "constraints": {
                "minimum": 0.0,
                "maximum": 3.0
            }
        },
        {
            "name": "platelets_mask_1",
            "type": "integer",
            "format": "",
            "nomenclature": "-",
            "constraints": {
                "minimum": 0.0,
                "maximum": 1.0
            }
        },
        {
            "name": "platelets_mask_2",
            "type": "integer",
            "format": "",
            "nomenclature": "-",
            "constraints": {
                "minimum": 0.0,
                "maximum": 1.0
            }
        },
        {
            "name": "platelets_mask_3",
            "type": "integer",
            "format": "",
            "nomenclature": "-",
            "constraints": {
                "minimum": 0.0,
                "maximum": 1.0
            }
        },
        {
            "name": "platelets_mask_4",
            "type": "integer",
            "format": "",
            "nomenclature": "-",
            "constraints": {
                "minimum": 0.0,
                "maximum": 1.0
            }
        },
        {
            "name": "platelets_mean_1",
            "type": "float",
            "format": "",
            "nomenclature": "-",
            "constraints": {
                "minimum": 6.0,
                "maximum": 561.0
            }
        },
        {
            "name": "platelets_mean_2",
            "type": "float",
            "format": "",
            "nomenclature": "-",
            "constraints": {
                "minimum": 22.0,
                "maximum": 561.0
            }
        },
        {
            "name": "platelets_mean_3",
            "type": "float",
            "format": "",
            "nomenclature": "-",
            "constraints": {
                "minimum": 12.0,
                "maximum": 561.0
            }
        },
        {
            "name": "platelets_mean_4",
            "type": "float",
            "format": "",
            "nomenclature": "-",
            "constraints": {
                "minimum": 39.0,
                "maximum": 561.0
            }
        },
        {
            "name": "platelets_time_since_measured_1",
            "type": "integer",
            "format": "",
            "nomenclature": "-",
            "constraints": {
                "minimum": 0.0,
                "maximum": 4.0
            }
        },
        {
            "name": "platelets_time_since_measured_2",
            "type": "integer",
            "format": "",
            "nomenclature": "-",
            "constraints": {
                "minimum": 0.0,
                "maximum": 5.0
            }
        },
        {
            "name": "platelets_time_since_measured_3",
            "type": "integer",
            "format": "",
            "nomenclature": "-",
            "constraints": {
                "minimum": 0.0,
                "maximum": 2.0
            }
        },
        {
            "name": "platelets_time_since_measured_4",
            "type": "integer",
            "format": "",
            "nomenclature": "-",
            "constraints": {
                "minimum": 0.0,
                "maximum": 3.0
            }
        },
        {
            "name": "creatinine_mask_1",
            "type": "integer",
            "format": "",
            "nomenclature": "-",
            "constraints": {
                "minimum": 0.0,
                "maximum": 1.0
            }
        },
        {
            "name": "creatinine_mask_2",
            "type": "integer",
            "format": "",
            "nomenclature": "-",
            "constraints": {
                "minimum": 0.0,
                "maximum": 1.0
            }
        },
        {
            "name": "creatinine_mask_3",
            "type": "integer",
            "format": "",
            "nomenclature": "-",
            "constraints": {
                "minimum": 0.0,
                "maximum": 1.0
            }
        },
        {
            "name": "creatinine_mask_4",
            "type": "integer",
            "format": "",
            "nomenclature": "-",
            "constraints": {
                "minimum": 0.0,
                "maximum": 1.0
            }
        },
        {
            "name": "creatinine_mean_1",
            "type": "float",
            "format": "",
            "nomenclature": "-",
            "constraints": {
                "minimum": 0.3,
                "maximum": 7.2
            }
        },
        {
            "name": "creatinine_mean_2",
            "type": "float",
            "format": "",
            "nomenclature": "-",
            "constraints": {
                "minimum": 0.3,
                "maximum": 6.0
            }
        },
        {
            "name": "creatinine_mean_3",
            "type": "float",
            "format": "",
            "nomenclature": "-",
            "constraints": {
                "minimum": 0.3,
                "maximum": 153.0
            }
        },
        {
            "name": "creatinine_mean_4",
            "type": "float",
            "format": "",
            "nomenclature": "-",
            "constraints": {
                "minimum": 0.3,
                "maximum": 153.0
            }
        },
        {
            "name": "creatinine_time_since_measured_1",
            "type": "integer",
            "format": "",
            "nomenclature": "-",
            "constraints": {
                "minimum": 0.0,
                "maximum": 4.0
            }
        },
        {
            "name": "creatinine_time_since_measured_2",
            "type": "integer",
            "format": "",
            "nomenclature": "-",
            "constraints": {
                "minimum": 0.0,
                "maximum": 2.0
            }
        },
        {
            "name": "creatinine_time_since_measured_3",
            "type": "integer",
            "format": "",
            "nomenclature": "-",
            "constraints": {
                "minimum": 0.0,
                "maximum": 2.0
            }
        },
        {
            "name": "creatinine_time_since_measured_4",
            "type": "integer",
            "format": "",
            "nomenclature": "-",
            "constraints": {
                "minimum": 0.0,
                "maximum": 3.0
            }
        },
        {
            "name": "glucose_mask_1",
            "type": "integer",
            "format": "",
            "nomenclature": "-",
            "constraints": {
                "minimum": 0.0,
                "maximum": 1.0
            }
        },
        {
            "name": "glucose_mask_2",
            "type": "integer",
            "format": "",
            "nomenclature": "-",
            "constraints": {
                "minimum": 0.0,
                "maximum": 1.0
            }
        },
        {
            "name": "glucose_mask_3",
            "type": "integer",
            "format": "",
            "nomenclature": "-",
            "constraints": {
                "minimum": 0.0,
                "maximum": 1.0
            }
        },
        {
            "name": "glucose_mask_4",
            "type": "integer",
            "format": "",
            "nomenclature": "-",
            "constraints": {
                "minimum": 0.0,
                "maximum": 1.0
            }
        },
        {
            "name": "glucose_mean_1",
            "type": "float",
            "format": "",
            "nomenclature": "-",
            "constraints": {
                "minimum": 65.5,
                "maximum": 344.0
            }
        },
        {
            "name": "glucose_mean_2",
            "type": "float",
            "format": "",
            "nomenclature": "-",
            "constraints": {
                "minimum": 69.0,
                "maximum": 387.0
            }
        },
        {
            "name": "glucose_mean_3",
            "type": "float",
            "format": "",
            "nomenclature": "-",
            "constraints": {
                "minimum": 57.0,
                "maximum": 384.0
            }
        },
        {
            "name": "glucose_mean_4",
            "type": "float",
            "format": "",
            "nomenclature": "-",
            "constraints": {
                "minimum": 56.0,
                "maximum": 384.0
            }
        },
        {
            "name": "glucose_time_since_measured_1",
            "type": "integer",
            "format": "",
            "nomenclature": "-",
            "constraints": {
                "minimum": 0.0,
                "maximum": 4.0
            }
        },
        {
            "name": "glucose_time_since_measured_2",
            "type": "integer",
            "format": "",
            "nomenclature": "-",
            "constraints": {
                "minimum": 0.0,
                "maximum": 1.0
            }
        },
        {
            "name": "glucose_time_since_measured_3",
            "type": "integer",
            "format": "",
            "nomenclature": "-",
            "constraints": {
                "minimum": 0.0,
                "maximum": 2.0
            }
        },
        {
            "name": "glucose_time_since_measured_4",
            "type": "integer",
            "format": "",
            "nomenclature": "-",
            "constraints": {
                "minimum": 0.0,
                "maximum": 3.0
            }
        },
        {
            "name": "respiratory rate_mask_1",
            "type": "integer",
            "format": "",
            "nomenclature": "-",
            "constraints": {
                "minimum": 0.0,
                "maximum": 1.0
            }
        },
        {
            "name": "respiratory rate_mask_2",
            "type": "integer",
            "format": "",
            "nomenclature": "-",
            "constraints": {
                "minimum": 0.0,
                "maximum": 1.0
            }
        },
        {
            "name": "respiratory rate_mask_3",
            "type": "integer",
            "format": "",
            "nomenclature": "-",
            "constraints": {
                "minimum": 0.0,
                "maximum": 1.0
            }
        },
        {
            "name": "respiratory rate_mask_4",
            "type": "integer",
            "format": "",
            "nomenclature": "-",
            "constraints": {
                "minimum": 0.0,
                "maximum": 1.0
            }
        },
        {
            "name": "respiratory rate_mean_1",
            "type": "float",
            "format": "",
            "nomenclature": "-",
            "constraints": {
                "minimum": 0.0,
                "maximum": 46.4
            }
        },
        {
            "name": "respiratory rate_mean_2",
            "type": "float",
            "format": "",
            "nomenclature": "-",
            "constraints": {
                "minimum": 0.0,
                "maximum": 35.333333333333336
            }
        },
        {
            "name": "respiratory rate_mean_3",
            "type": "float",
            "format": "",
            "nomenclature": "-",
            "constraints": {
                "minimum": 0.0,
                "maximum": 34.166666666666664
            }
        },
        {
            "name": "respiratory rate_mean_4",
            "type": "float",
            "format": "",
            "nomenclature": "-",
            "constraints": {
                "minimum": 0.0,
                "maximum": 32.666666666666664
            }
        },
        {
            "name": "respiratory rate_time_since_measured_1",
            "type": "integer",
            "format": "",
            "nomenclature": "-",
            "constraints": {
                "minimum": 0.0,
                "maximum": 1.0
            }
        },
        {
            "name": "respiratory rate_time_since_measured_2",
            "type": "integer",
            "format": "",
            "nomenclature": "-",
            "constraints": {
                "minimum": 0.0,
                "maximum": 2.0
            }
        },
        {
            "name": "respiratory rate_time_since_measured_3",
            "type": "integer",
            "format": "",
            "nomenclature": "-",
            "constraints": {
                "minimum": 0.0,
                "maximum": 3.0
            }
        },
        {
            "name": "respiratory rate_time_since_measured_4",
            "type": "integer",
            "format": "",
            "nomenclature": "-",
            "constraints": {
                "minimum": 0.0,
                "maximum": 4.0
            }
        },
        {
            "name": "glascow coma scale total_mask_1",
            "type": "integer",
            "format": "",
            "nomenclature": "-",
            "constraints": {
                "minimum": 0.0,
                "maximum": 1.0
            }
        },
        {
            "name": "glascow coma scale total_mask_2",
            "type": "integer",
            "format": "",
            "nomenclature": "-",
            "constraints": {
                "minimum": 0.0,
                "maximum": 1.0
            }
        },
        {
            "name": "glascow coma scale total_mask_3",
            "type": "integer",
            "format": "",
            "nomenclature": "-",
            "constraints": {
                "minimum": 0.0,
                "maximum": 1.0
            }
        },
        {
            "name": "glascow coma scale total_mask_4",
            "type": "integer",
            "format": "",
            "nomenclature": "-",
            "constraints": {
                "minimum": 0.0,
                "maximum": 1.0
            }
        },
        {
            "name": "glascow coma scale total_mean_1",
            "type": "float",
            "format": "",
            "nomenclature": "-",
            "constraints": {
                "minimum": 0.0,
                "maximum": 15.0
            }
        },
        {
            "name": "glascow coma scale total_mean_2",
            "type": "float",
            "format": "",
            "nomenclature": "-",
            "constraints": {
                "minimum": 0.0,
                "maximum": 15.0
            }
        },
        {
            "name": "glascow coma scale total_mean_3",
            "type": "float",
            "format": "",
            "nomenclature": "-",
            "constraints": {
                "minimum": 0.0,
                "maximum": 15.0
            }
        },
        {
            "name": "glascow coma scale total_mean_4",
            "type": "float",
            "format": "",
            "nomenclature": "-",
            "constraints": {
                "minimum": 0.0,
                "maximum": 15.0
            }
        },
        {
            "name": "glascow coma scale total_time_since_measured_1",
            "type": "integer",
            "format": "",
            "nomenclature": "-",
            "constraints": {
                "minimum": 0.0,
                "maximum": 199.0
            }
        },
        {
            "name": "glascow coma scale total_time_since_measured_2",
            "type": "integer",
            "format": "",
            "nomenclature": "-",
            "constraints": {
                "minimum": 0.0,
                "maximum": 200.0
            }
        },
        {
            "name": "glascow coma scale total_time_since_measured_3",
            "type": "integer",
            "format": "",
            "nomenclature": "-",
            "constraints": {
                "minimum": 0.0,
                "maximum": 201.0
            }
        },
        {
            "name": "glascow coma scale total_time_since_measured_4",
            "type": "integer",
            "format": "",
            "nomenclature": "-",
            "constraints": {
                "minimum": 0.0,
                "maximum": 202.0
            }
        },
        {
            "name": "systolic blood pressure_mask_1",
            "type": "integer",
            "format": "",
            "nomenclature": "-",
            "constraints": {
                "minimum": 0.0,
                "maximum": 1.0
            }
        },
        {
            "name": "systolic blood pressure_mask_2",
            "type": "integer",
            "format": "",
            "nomenclature": "-",
            "constraints": {
                "minimum": 0.0,
                "maximum": 1.0
            }
        },
        {
            "name": "systolic blood pressure_mask_3",
            "type": "integer",
            "format": "",
            "nomenclature": "-",
            "constraints": {
                "minimum": 0.0,
                "maximum": 1.0
            }
        },
        {
            "name": "systolic blood pressure_mask_4",
            "type": "integer",
            "format": "",
            "nomenclature": "-",
            "constraints": {
                "minimum": 0.0,
                "maximum": 1.0
            }
        },
        {
            "name": "systolic blood pressure_mean_1",
            "type": "float",
            "format": "",
            "nomenclature": "-",
            "constraints": {
                "minimum": 0.0,
                "maximum": 169.75
            }
        },
        {
            "name": "systolic blood pressure_mean_2",
            "type": "float",
            "format": "",
            "nomenclature": "-",
            "constraints": {
                "minimum": 0.0,
                "maximum": 178.125
            }
        },
        {
            "name": "systolic blood pressure_mean_3",
            "type": "float",
            "format": "",
            "nomenclature": "-",
            "constraints": {
                "minimum": 0.0,
                "maximum": 162.5
            }
        },
        {
            "name": "systolic blood pressure_mean_4",
            "type": "float",
            "format": "",
            "nomenclature": "-",
            "constraints": {
                "minimum": 0.0,
                "maximum": 168.0
            }
        },
        {
            "name": "systolic blood pressure_time_since_measured_1",
            "type": "integer",
            "format": "",
            "nomenclature": "-",
            "constraints": {
                "minimum": 0.0,
                "maximum": 1.0
            }
        },
        {
            "name": "systolic blood pressure_time_since_measured_2",
            "type": "integer",
            "format": "",
            "nomenclature": "-",
            "constraints": {
                "minimum": 0.0,
                "maximum": 2.0
            }
        },
        {
            "name": "systolic blood pressure_time_since_measured_3",
            "type": "integer",
            "format": "",
            "nomenclature": "-",
            "constraints": {
                "minimum": 0.0,
                "maximum": 3.0
            }
        },
        {
            "name": "systolic blood pressure_time_since_measured_4",
            "type": "integer",
            "format": "",
            "nomenclature": "-",
            "constraints": {
                "minimum": 0.0,
                "maximum": 4.0
            }
        },
        {
            "name": "heart rate_mask_1",
            "type": "integer",
            "format": "",
            "nomenclature": "-",
            "constraints": {
                "minimum": 0.0,
                "maximum": 1.0
            }
        },
        {
            "name": "heart rate_mask_2",
            "type": "integer",
            "format": "",
            "nomenclature": "-",
            "constraints": {
                "minimum": 0.0,
                "maximum": 1.0
            }
        },
        {
            "name": "heart rate_mask_3",
            "type": "integer",
            "format": "",
            "nomenclature": "-",
            "constraints": {
                "minimum": 0.0,
                "maximum": 1.0
            }
        },
        {
            "name": "heart rate_mask_4",
            "type": "integer",
            "format": "",
            "nomenclature": "-",
            "constraints": {
                "minimum": 0.0,
                "maximum": 1.0
            }
        },
        {
            "name": "heart rate_mean_1",
            "type": "float",
            "format": "",
            "nomenclature": "-",
            "constraints": {
                "minimum": 0.0,
                "maximum": 129.73888888888888
            }
        },
        {
            "name": "heart rate_mean_2",
            "type": "float",
            "format": "",
            "nomenclature": "-",
            "constraints": {
                "minimum": 0.0,
                "maximum": 134.0
            }
        },
        {
            "name": "heart rate_mean_3",
            "type": "float",
            "format": "",
            "nomenclature": "-",
            "constraints": {
                "minimum": 0.0,
                "maximum": 129.66666666666666
            }
        },
        {
            "name": "heart rate_mean_4",
            "type": "float",
            "format": "",
            "nomenclature": "-",
            "constraints": {
                "minimum": 0.0,
                "maximum": 126.25
            }
        },
        {
            "name": "heart rate_time_since_measured_1",
            "type": "integer",
            "format": "",
            "nomenclature": "-",
            "constraints": {
                "minimum": 0.0,
                "maximum": 1.0
            }
        },
        {
            "name": "heart rate_time_since_measured_2",
            "type": "integer",
            "format": "",
            "nomenclature": "-",
            "constraints": {
                "minimum": 0.0,
                "maximum": 2.0
            }
        },
        {
            "name": "heart rate_time_since_measured_3",
            "type": "integer",
            "format": "",
            "nomenclature": "-",
            "constraints": {
                "minimum": 0.0,
                "maximum": 3.0
            }
        },
        {
            "name": "heart rate_time_since_measured_4",
            "type": "integer",
            "format": "",
            "nomenclature": "-",
            "constraints": {
                "minimum": 0.0,
                "maximum": 4.0
            }
        },
        {
            "name": "temperature_mask_1",
            "type": "integer",
            "format": "",
            "nomenclature": "-",
            "constraints": {
                "minimum": 0.0,
                "maximum": 1.0
            }
        },
        {
            "name": "temperature_mask_2",
            "type": "integer",
            "format": "",
            "nomenclature": "-",
            "constraints": {
                "minimum": 0.0,
                "maximum": 1.0
            }
        },
        {
            "name": "temperature_mask_3",
            "type": "integer",
            "format": "",
            "nomenclature": "-",
            "constraints": {
                "minimum": 0.0,
                "maximum": 1.0
            }
        },
        {
            "name": "temperature_mask_4",
            "type": "integer",
            "format": "",
            "nomenclature": "-",
            "constraints": {
                "minimum": 0.0,
                "maximum": 1.0
            }
        },
        {
            "name": "temperature_mean_1",
            "type": "float",
            "format": "",
            "nomenclature": "-",
            "constraints": {
                "minimum": 0.0,
                "maximum": 38.6388947168986
            }
        },
        {
            "name": "temperature_mean_2",
            "type": "float",
            "format": "",
            "nomenclature": "-",
            "constraints": {
                "minimum": 0.0,
                "maximum": 39.0
            }
        },
        {
            "name": "temperature_mean_3",
            "type": "float",
            "format": "",
            "nomenclature": "-",
            "constraints": {
                "minimum": 0.0,
                "maximum": 39.21851851851852
            }
        },
        {
            "name": "temperature_mean_4",
            "type": "float",
            "format": "",
            "nomenclature": "-",
            "constraints": {
                "minimum": 0.0,
                "maximum": 39.50000028257017
            }
        },
        {
            "name": "temperature_time_since_measured_1",
            "type": "integer",
            "format": "",
            "nomenclature": "-",
            "constraints": {
                "minimum": 0.0,
                "maximum": 1.0
            }
        },
        {
            "name": "temperature_time_since_measured_2",
            "type": "integer",
            "format": "",
            "nomenclature": "-",
            "constraints": {
                "minimum": 0.0,
                "maximum": 2.0
            }
        },
        {
            "name": "temperature_time_since_measured_3",
            "type": "integer",
            "format": "",
            "nomenclature": "-",
            "constraints": {
                "minimum": 0.0,
                "maximum": 3.0
            }
        },
        {
            "name": "temperature_time_since_measured_4",
            "type": "integer",
            "format": "",
            "nomenclature": "-",
            "constraints": {
                "minimum": 0.0,
                "maximum": 4.0
            }
        },
        {
            "name": "partial pressure of oxygen_mask_1",
            "type": "integer",
            "format": "",
            "nomenclature": "-",
            "constraints": {
                "minimum": 0.0,
                "maximum": 1.0
            }
        },
        {
            "name": "partial pressure of oxygen_mask_2",
            "type": "integer",
            "format": "",
            "nomenclature": "-",
            "constraints": {
                "minimum": 0.0,
                "maximum": 1.0
            }
        },
        {
            "name": "partial pressure of oxygen_mask_3",
            "type": "integer",
            "format": "",
            "nomenclature": "-",
            "constraints": {
                "minimum": 0.0,
                "maximum": 1.0
            }
        },
        {
            "name": "partial pressure of oxygen_mask_4",
            "type": "integer",
            "format": "",
            "nomenclature": "-",
            "constraints": {
                "minimum": 0.0,
                "maximum": 1.0
            }
        },
        {
            "name": "partial pressure of oxygen_mean_1",
            "type": "float",
            "format": "",
            "nomenclature": "-",
            "constraints": {
                "minimum": 0.0,
                "maximum": 472.0
            }
        },
        {
            "name": "partial pressure of oxygen_mean_2",
            "type": "float",
            "format": "",
            "nomenclature": "-",
            "constraints": {
                "minimum": 0.0,
                "maximum": 472.0
            }
        },
        {
            "name": "partial pressure of oxygen_mean_3",
            "type": "float",
            "format": "",
            "nomenclature": "-",
            "constraints": {
                "minimum": 0.0,
                "maximum": 431.0
            }
        },
        {
            "name": "partial pressure of oxygen_mean_4",
            "type": "float",
            "format": "",
            "nomenclature": "-",
            "constraints": {
                "minimum": 0.0,
                "maximum": 431.0
            }
        },
        {
            "name": "partial pressure of oxygen_time_since_measured_1",
            "type": "integer",
            "format": "",
            "nomenclature": "-",
            "constraints": {
                "minimum": 0.0,
                "maximum": 203.0
            }
        },
        {
            "name": "partial pressure of oxygen_time_since_measured_2",
            "type": "integer",
            "format": "",
            "nomenclature": "-",
            "constraints": {
                "minimum": 0.0,
                "maximum": 204.0
            }
        },
        {
            "name": "partial pressure of oxygen_time_since_measured_3",
            "type": "integer",
            "format": "",
            "nomenclature": "-",
            "constraints": {
                "minimum": 0.0,
                "maximum": 205.0
            }
        },
        {
            "name": "partial pressure of oxygen_time_since_measured_4",
            "type": "integer",
            "format": "",
            "nomenclature": "-",
            "constraints": {
                "minimum": 0.0,
                "maximum": 206.0
            }
        },
        {
            "name": "white blood cell count_mask_1",
            "type": "integer",
            "format": "",
            "nomenclature": "-",
            "constraints": {
                "minimum": 0.0,
                "maximum": 1.0
            }
        },
        {
            "name": "white blood cell count_mask_2",
            "type": "integer",
            "format": "",
            "nomenclature": "-",
            "constraints": {
                "minimum": 0.0,
                "maximum": 1.0
            }
        },
        {
            "name": "white blood cell count_mask_3",
            "type": "integer",
            "format": "",
            "nomenclature": "-",
            "constraints": {
                "minimum": 0.0,
                "maximum": 1.0
            }
        },
        {
            "name": "white blood cell count_mask_4",
            "type": "integer",
            "format": "",
            "nomenclature": "-",
            "constraints": {
                "minimum": 0.0,
                "maximum": 1.0
            }
        },
        {
            "name": "white blood cell count_mean_1",
            "type": "float",
            "format": "",
            "nomenclature": "-",
            "constraints": {
                "minimum": 1.2,
                "maximum": 69.60000000000001
            }
        },
        {
            "name": "white blood cell count_mean_2",
            "type": "float",
            "format": "",
            "nomenclature": "-",
            "constraints": {
                "minimum": 1.2,
                "maximum": 57.7
            }
        },
        {
            "name": "white blood cell count_mean_3",
            "type": "float",
            "format": "",
            "nomenclature": "-",
            "constraints": {
                "minimum": 1.2,
                "maximum": 57.7
            }
        },
        {
            "name": "white blood cell count_mean_4",
            "type": "float",
            "format": "",
            "nomenclature": "-",
            "constraints": {
                "minimum": 0.7,
                "maximum": 57.7
            }
        },
        {
            "name": "white blood cell count_time_since_measured_1",
            "type": "integer",
            "format": "",
            "nomenclature": "-",
            "constraints": {
                "minimum": 0.0,
                "maximum": 4.0
            }
        },
        {
            "name": "white blood cell count_time_since_measured_2",
            "type": "integer",
            "format": "",
            "nomenclature": "-",
            "constraints": {
                "minimum": 0.0,
                "maximum": 5.0
            }
        },
        {
            "name": "white blood cell count_time_since_measured_3",
            "type": "integer",
            "format": "",
            "nomenclature": "-",
            "constraints": {
                "minimum": 0.0,
                "maximum": 2.0
            }
        },
        {
            "name": "white blood cell count_time_since_measured_4",
            "type": "integer",
            "format": "",
            "nomenclature": "-",
            "constraints": {
                "minimum": 0.0,
                "maximum": 3.0
            }
        },
        {
            "name": "sodium_mask_1",
            "type": "integer",
            "format": "",
            "nomenclature": "-",
            "constraints": {
                "minimum": 0.0,
                "maximum": 1.0
            }
        },
        {
            "name": "sodium_mask_2",
            "type": "integer",
            "format": "",
            "nomenclature": "-",
            "constraints": {
                "minimum": 0.0,
                "maximum": 1.0
            }
        },
        {
            "name": "sodium_mask_3",
            "type": "integer",
            "format": "",
            "nomenclature": "-",
            "constraints": {
                "minimum": 0.0,
                "maximum": 1.0
            }
        },
        {
            "name": "sodium_mask_4",
            "type": "integer",
            "format": "",
            "nomenclature": "-",
            "constraints": {
                "minimum": 0.0,
                "maximum": 1.0
            }
        },
        {
            "name": "sodium_mean_1",
            "type": "float",
            "format": "",
            "nomenclature": "-",
            "constraints": {
                "minimum": 118.33333333333331,
                "maximum": 165.0
            }
        },
        {
            "name": "sodium_mean_2",
            "type": "float",
            "format": "",
            "nomenclature": "-",
            "constraints": {
                "minimum": 121.0,
                "maximum": 158.0
            }
        },
        {
            "name": "sodium_mean_3",
            "type": "float",
            "format": "",
            "nomenclature": "-",
            "constraints": {
                "minimum": 121.0,
                "maximum": 158.0
            }
        },
        {
            "name": "sodium_mean_4",
            "type": "float",
            "format": "",
            "nomenclature": "-",
            "constraints": {
                "minimum": 121.0,
                "maximum": 158.0
            }
        },
        {
            "name": "sodium_time_since_measured_1",
            "type": "integer",
            "format": "",
            "nomenclature": "-",
            "constraints": {
                "minimum": 0.0,
                "maximum": 4.0
            }
        },
        {
            "name": "sodium_time_since_measured_2",
            "type": "integer",
            "format": "",
            "nomenclature": "-",
            "constraints": {
                "minimum": 0.0,
                "maximum": 5.0
            }
        },
        {
            "name": "sodium_time_since_measured_3",
            "type": "integer",
            "format": "",
            "nomenclature": "-",
            "constraints": {
                "minimum": 0.0,
                "maximum": 2.0
            }
        },
        {
            "name": "sodium_time_since_measured_4",
            "type": "integer",
            "format": "",
            "nomenclature": "-",
            "constraints": {
                "minimum": 0.0,
                "maximum": 3.0
            }
        },
        {
            "name": "potassium_mask_1",
            "type": "integer",
            "format": "",
            "nomenclature": "-",
            "constraints": {
                "minimum": 0.0,
                "maximum": 1.0
            }
        },
        {
            "name": "potassium_mask_2",
            "type": "integer",
            "format": "",
            "nomenclature": "-",
            "constraints": {
                "minimum": 0.0,
                "maximum": 1.0
            }
        },
        {
            "name": "potassium_mask_3",
            "type": "integer",
            "format": "",
            "nomenclature": "-",
            "constraints": {
                "minimum": 0.0,
                "maximum": 1.0
            }
        },
        {
            "name": "potassium_mask_4",
            "type": "integer",
            "format": "",
            "nomenclature": "-",
            "constraints": {
                "minimum": 0.0,
                "maximum": 1.0
            }
        },
        {
            "name": "potassium_mean_1",
            "type": "float",
            "format": "",
            "nomenclature": "-",
            "constraints": {
                "minimum": 2.9875,
                "maximum": 5.9
            }
        },
        {
            "name": "potassium_mean_2",
            "type": "float",
            "format": "",
            "nomenclature": "-",
            "constraints": {
                "minimum": 3.0,
                "maximum": 5.9
            }
        },
        {
            "name": "potassium_mean_3",
            "type": "float",
            "format": "",
            "nomenclature": "-",
            "constraints": {
                "minimum": 3.0,
                "maximum": 5.9
            }
        },
        {
            "name": "potassium_mean_4",
            "type": "float",
            "format": "",
            "nomenclature": "-",
            "constraints": {
                "minimum": 3.0,
                "maximum": 6.125
            }
        },
        {
            "name": "potassium_time_since_measured_1",
            "type": "integer",
            "format": "",
            "nomenclature": "-",
            "constraints": {
                "minimum": 0.0,
                "maximum": 4.0
            }
        },
        {
            "name": "potassium_time_since_measured_2",
            "type": "integer",
            "format": "",
            "nomenclature": "-",
            "constraints": {
                "minimum": 0.0,
                "maximum": 2.0
            }
        },
        {
            "name": "potassium_time_since_measured_3",
            "type": "integer",
            "format": "",
            "nomenclature": "-",
            "constraints": {
                "minimum": 0.0,
                "maximum": 2.0
            }
        },
        {
            "name": "potassium_time_since_measured_4",
            "type": "integer",
            "format": "",
            "nomenclature": "-",
            "constraints": {
                "minimum": 0.0,
                "maximum": 3.0
            }
        }
    ],
    "foreignKeys": []
}